"","country","suicides100kpop"
"28","Dominica",0
"77","Saint Kitts and Nevis",0
"46","Jamaica",0.521764705882353
"2","Antigua and Barbuda",0.552901234567901
"66","Oman",0.736111111111111
"86","South Africa",0.964541666666667
"50","Kuwait",1.18643333333333
"9","Bahamas",1.24739130434783
"97","United Arab Emirates",1.31791666666667
"56","Maldives",1.36733333333333
"73","Qatar",1.7873595505618
"10","Bahrain",1.85412698412698
"8","Azerbaijan",1.85541666666667
"38","Grenada",2.13225806451613
"94","Turkey",2.37107142857143
"69","Philippines",2.42127777777778
"11","Barbados",2.97043333333333
"39","Guatemala",3.18527777777778
"4","Armenia",3.27587248322148
"25","Cyprus",3.29359550561798
"1","Albania",3.50287878787879
"80","San Marino",4.045
"37","Greece",4.06483870967742
"68","Paraguay",4.21719135802469
"35","Georgia",4.22871212121212
"15","Bosnia and Herzegovina",4.61708333333333
"59","Mexico",4.7075
"57","Malta",5.03228494623656
"32","Fiji",5.105
"21","Colombia",5.40158602150538
"79","Saint Vincent and Grenadines",5.75543333333333
"67","Panama",5.81353333333333
"16","Brazil",5.84602150537634
"14","Belize",6.230625
"29","Ecuador",6.30432795698925
"64","Nicaragua",6.56694444444444
"49","Kiribati",6.65537878787879
"92","Thailand",7.0738622754491
"22","Costa Rica",7.09366666666667
"78","Saint Lucia",7.20273809523809
"82","Seychelles",7.48009259259259
"98","United Kingdom",7.50247311827957
"101","Uzbekistan",8.09912878787879
"45","Italy",8.51846774193548
"95","Turkmenistan",8.6055459770115
"44","Israel",8.95153225806452
"87","Spain",9.43295698924731
"5","Aruba",9.50309523809524
"61","Montenegro",9.95025
"72","Puerto Rico",10.1862365591398
"3","Argentina",10.4693279569892
"30","El Salvador",10.5414583333333
"20","Chile",10.5420430107527
"62","Netherlands",10.6453403141361
"43","Ireland",10.7825833333333
"18","Cabo Verde",11.1533333333333
"71","Portugal",11.3375308641975
"58","Mauritius",11.6873821989529
"19","Canada",12.4675862068966
"75","Romania",12.4896706586826
"84","Slovakia",12.5687878787879
"42","Iceland",12.8003664921466
"65","Norway",12.941
"6","Australia",12.9928055555556
"99","United States",13.819811827957
"93","Trinidad and Tobago",13.8256481481481
"27","Denmark",14.0971590909091
"51","Kyrgyzstan",14.2862179487179
"55","Macau",14.3116666666667
"63","New Zealand",14.391724137931
"90","Sweden",14.6584357541899
"70","Poland",15.2695138888889
"36","Germany",15.5599038461538
"54","Luxembourg",16.5498924731183
"83","Singapore",17.0456451612903
"60","Mongolia",18.439
"26","Czech Republic",18.4875465838509
"91","Switzerland",19.0240873015873
"100","Uruguay",19.4611904761905
"17","Bulgaria",19.4891111111111
"24","Cuba",21.2220486111111
"13","Belgium",21.2379032258065
"89","Suriname",21.3164285714286
"47","Japan",21.5731989247312
"34","France",21.6756944444444
"81","Serbia",22.1641203703704
"40","Guyana",22.1864
"33","Finland",22.7704310344828
"23","Croatia",22.8352671755725
"7","Austria",23.7597643979058
"74","Republic of Korea",25.1356182795699
"96","Ukraine",26.5823214285714
"31","Estonia",27.2769047619048
"85","Slovenia",27.8278571428571
"52","Latvia",29.2593253968254
"48","Kazakhstan",30.5112820512821
"12","Belarus",31.0759126984127
"41","Hungary",32.7615161290323
"76","Russian Federation",34.8923765432099
"88","Sri Lanka",35.2951515151515
"53","Lithuania",40.415572519084
